lc=250.0;
buffer=500.0;
Point(1) = {602698.0+buffer, 2190398.0+buffer, 0.0, lc};
Point(2) = {612397.0-buffer, 2189900.0+buffer, 0.0, lc};
Point(3) = {612992.0-buffer, 2201302.0-buffer, 0.0, lc};
Point(4) = {603301.0+buffer, 2201799.0-buffer, 0.0, lc};
Line(1)={1,2};
Line(2)={2,3};
Line(3)={3,4};
Line(4)={4,1};
Line Loop(5)={1,2,3,4}; 
Plane Surface(6) = {5}; 
Physical Line(1) = {1}; 
Physical Line(2) = {2}; 
Physical Line(3) = {3}; 
Physical Line(4) = {4}; 
Physical Surface(1) = {6}; 
